<?xml version="1.0" encoding="UTF-8" standalone="no"?>
<svg width="72px" height="72px" viewBox="0 0 72 72" version="1.1" xmlns="http://www.w3.org/2000/svg" xmlns:xlink="http://www.w3.org/1999/xlink">
    <!-- Generator: Sketch 40.1 (33804) - http://www.bohemiancoding.com/sketch -->
    <title>72 - hdpi copy 3</title>
    <desc>Created with Sketch.</desc>
    <defs></defs>
    <g id="Page-1" stroke="none" stroke-width="1" fill="none" fill-rule="evenodd">
        <g id="72---hdpi-copy-3" fill="#9F1B96">
            <g id="icon-regalo" transform="translate(9.000000, 9.000000)">
                <polygon id="Fill-1" points="48.375 51.75 28.125 51.75 28.125 24.75 25.875 24.75 25.875 51.75 5.625 51.75 5.625 24.75 3.375 24.75 3.375 54 50.625 54 50.625 24.75 48.375 24.75"></polygon>
                <path d="M51.75,20.25 L28.059,20.25 C28.035,18.705 28.06,15.5 28.107,12.375 L51.75,12.375 L51.75,20.25 Z M2.25,12.364 L25.944,12.364 L25.895,20.25 L2.25,20.25 L2.25,12.364 Z M16.313,2.25 C20.383,2.25 23.722,7.437 25.179,10.125 L16.313,10.125 C11.11,10.125 11.108,2.25 16.313,2.25 L16.313,2.25 Z M37.688,2.25 C42.891,2.25 42.892,10.125 37.688,10.125 L28.821,10.125 C30.278,7.437 33.617,2.25 37.688,2.25 L37.688,2.25 Z M42.457,10.125 C45.765,6.125 42.929,0 37.688,0 C32.573,0 28.741,5.625 27,8.76 C25.259,5.625 21.427,0 16.313,0 C11.08,0 8.229,6.118 11.543,10.125 L0,10.125 L0,22.5 L54,22.5 L54,10.125 L42.457,10.125 Z" id="Fill-2"></path>
            </g>
        </g>
    </g>
</svg>