<?xml version="1.0" encoding="UTF-8" standalone="no"?>
<svg width="72px" height="72px" viewBox="0 0 72 72" version="1.1" xmlns="http://www.w3.org/2000/svg" xmlns:xlink="http://www.w3.org/1999/xlink">
    <!-- Generator: Sketch 40.1 (33804) - http://www.bohemiancoding.com/sketch -->
    <title>72 - hdpi copy 6</title>
    <desc>Created with Sketch.</desc>
    <defs></defs>
    <g id="Page-1" stroke="none" stroke-width="1" fill="none" fill-rule="evenodd">
        <g id="72---hdpi-copy-6" fill="#9F1B96">
            <g id="icon-media-pension" transform="translate(15.000000, 4.000000)">
                <path d="M36.7722,57.3723 C36.7722,58.8903 35.5112,60.1253 33.9612,60.1253 C32.3952,60.1253 31.1022,58.8623 31.1512,57.2893 L31.8292,35.1543 L30.8382,35.0153 C28.8982,34.7413 27.5422,32.9963 27.7492,31.0423 L30.4512,5.6093 C30.6242,3.9793 31.9782,2.7503 33.6022,2.7503 C35.3502,2.7503 36.7722,4.1863 36.7722,5.9513 L36.7722,57.3723 L36.7722,57.3723 Z M33.6022,0.5003 C30.8372,0.5003 28.5302,2.5943 28.2362,5.3703 L25.5342,30.8023 C25.2342,33.6273 26.9452,36.1823 29.5432,37.0173 L28.9242,57.2193 C28.8372,60.0293 31.0992,62.3753 33.9612,62.3753 C36.7392,62.3753 39.0002,60.1313 39.0002,57.3723 L39.0002,5.9513 C39.0002,2.9453 36.5782,0.5003 33.6022,0.5003 L33.6022,0.5003 Z" id="Fill-1"></path>
                <polygon id="Fill-3" points="6.375 18.5 8.625 18.5 8.625 3.875 6.375 3.875"></polygon>
                <polygon id="Fill-5" points="10.875 18.5 13.125 18.5 13.125 3.875 10.875 3.875"></polygon>
                <path d="M17.4556,3.875 L15.2126,3.875 C15.4686,7.449 16.1976,17.481 16.4876,20.248 C16.7316,22.568 15.2466,24.728 13.1086,25.165 L12.1856,25.353 L13.1036,56.785 C13.1296,57.645 12.8086,58.466 12.2016,59.094 C10.9186,60.424 8.5816,60.424 7.2986,59.094 C6.6916,58.466 6.3706,57.645 6.3966,56.785 L7.3146,25.353 L6.3916,25.165 C4.2536,24.728 2.7686,22.568 3.0126,20.248 C3.3026,17.481 4.0316,7.449 4.2876,3.875 L2.0446,3.875 C1.7776,7.575 1.0656,17.36 0.7886,20.012 C0.4596,23.136 2.2736,26.073 5.0246,27.105 L4.1596,56.719 C4.0696,59.81 6.5856,62.375 9.7496,62.375 C12.9176,62.375 15.4296,59.808 15.3406,56.719 L14.4756,27.105 C17.2256,26.074 19.0406,23.136 18.7116,20.013 C18.4346,17.36 17.7226,7.575 17.4556,3.875" id="Fill-6"></path>
            </g>
        </g>
    </g>
</svg>