<?xml version="1.0" encoding="UTF-8" standalone="no"?>
<svg width="72px" height="72px" viewBox="0 0 72 72" version="1.1" xmlns="http://www.w3.org/2000/svg" xmlns:xlink="http://www.w3.org/1999/xlink">
    <!-- Generator: Sketch 40.1 (33804) - http://www.bohemiancoding.com/sketch -->
    <title>72 - hdpi</title>
    <desc>Created with Sketch.</desc>
    <defs></defs>
    <g id="Page-1" stroke="none" stroke-width="1" fill="none" fill-rule="evenodd">
        <g id="72---hdpi" fill="#FFFFFF">
            <path d="M14.5571946,7.20135208 C13.4378846,7.20135208 12.3461939,7.58327685 11.4652824,8.31517832 C10.264568,9.25329011 9.19032116,10.2814374 8.2280053,11.4039768 C5.84111307,14.1442507 4.41508306,17.6353045 4.2072112,21.2468897 C4.10690939,24.3008357 4.74796876,27.4186778 6.06206777,30.2228479 C8.26725383,35.0644342 11.7036809,38.9374127 14.4510782,41.7720787 C18.1448011,45.431586 22.1190785,48.9415183 26.2401744,52.1827962 L27.8028474,53.4665281 C31.5547164,56.6540751 35.6554612,59.4001578 40.00478,61.6466887 C43.7958975,63.6652265 48.0507292,64.7543655 52.3273656,64.805192 L52.3288192,64.8719926 L52.3346338,64.7993833 L52.7489239,64.7993833 C53.2562475,64.789218 53.7955514,64.7485568 54.3261334,64.6744953 C59.7002751,63.8351322 63.9740041,60.7303597 67.0063167,55.447309 C68.1474314,53.5681811 68.0340468,51.2592062 66.7344843,49.5311055 C64.4289964,46.2012443 61.2353288,43.7775468 57.4645624,42.4705799 C56.0487079,41.9187495 54.5223761,42.1728819 53.411788,43.105185 C52.8303282,43.5858583 52.321551,44.0084443 51.7110182,44.554466 C51.061237,45.133888 50.3751145,45.7118578 49.6860847,46.269497 C48.8458754,46.9796157 47.9315299,47.6752125 46.9924725,48.3185307 C46.1929653,48.9299008 45.0940064,48.986536 44.2319923,48.4564883 L43.6548936,48.1442684 C42.7856112,47.6664994 41.9642994,47.2148698 41.1633386,46.692083 C36.6017869,43.6657285 32.290263,40.224049 28.3363367,36.4556278 C26.6471962,34.8698413 25.0423673,33.1199579 23.4884162,31.4281618 L22.0827372,29.8990105 C21.2832301,29.1322566 21.1102458,27.8238376 21.7047884,26.7971424 C22.1147175,25.9127615 22.5944218,25.0196675 23.1671596,24.0728426 L23.501499,23.4629247 C23.8590967,22.8239631 24.1905288,22.2488976 24.5815605,21.5736314 C24.9638702,20.9143392 25.3418191,20.255047 25.7124997,19.5943026 C26.3433835,18.4630502 26.3273933,17.0675 25.6659829,15.9536737 C23.6904734,12.2462443 20.5360543,9.34042124 16.7449368,7.70671262 C16.0413705,7.36835341 15.2941948,7.20135208 14.5571946,7.20135208 L14.5571946,7.20135208 Z M52.375336,68 C47.5027034,67.9433648 42.7420018,66.7249812 38.5176968,64.4755459 C33.9706816,62.1273621 29.6693332,59.244774 25.7502945,55.9178171 L24.2341383,54.671842 C20.0447208,51.3768332 15.9803173,47.7855786 12.1761169,44.0186096 C9.2266624,40.9762811 5.56055874,36.8346482 3.15913002,31.5632151 C1.6386128,28.320485 0.894344336,24.6972823 1.01208993,21.1016711 C1.26357127,16.746567 2.96579466,12.5758904 5.80622548,9.31718627 C6.89646249,8.04361964 8.12770349,6.86734943 9.45779264,5.82903684 C11.8417776,3.84535153 15.2404098,3.43147867 18.075026,4.80234173 C22.4665007,6.69308718 26.1747601,10.1086273 28.4540823,14.38967 C29.657704,16.4154687 29.6896843,19.0308547 28.5035064,21.1524976 C28.1270112,21.8277639 27.7403405,22.5015779 27.3493088,23.1768441 C26.9640917,23.8375885 26.6413816,24.3995843 26.2983203,25.0124065 L25.9363617,25.6702465 C25.4275844,26.5154185 25.0191089,27.2647462 24.6731404,27.9980998 L25.8447817,29.2687621 C27.3594844,30.9169925 28.9250647,32.6233104 30.5357082,34.1364877 C34.3617133,37.7829253 38.5264187,41.1069778 42.9222543,44.0229662 C43.6127377,44.4745958 44.3817182,44.8971818 45.1957619,45.3444549 L45.4632333,45.4911256 C46.2147701,44.9625301 46.9474093,44.3990822 47.6480683,43.8080427 C48.3225616,43.2605688 48.9694356,42.7174514 49.5799683,42.1728819 C50.2210277,41.5992687 50.7574243,41.1534477 51.3606887,40.6524437 C53.3623639,38.9737174 56.1286586,38.5206355 58.5707895,39.4732692 C62.9288303,40.983542 66.6705237,43.8225646 69.3292483,47.6635951 C71.3803476,50.3893471 71.564961,54.1025853 69.7609822,57.0723045 C66.2431508,63.2019793 61.2004412,66.8353473 54.7942085,67.8344509 C54.1109933,67.9302951 53.440861,67.9825738 52.7779969,67.9941913 L52.4015017,67.9941913 L52.3913261,67.7516763 L52.375336,68 Z" id="Fill-1"></path>
        </g>
    </g>
</svg>