<?xml version="1.0" encoding="UTF-8" standalone="no"?>
<svg width="72px" height="72px" viewBox="0 0 72 72" version="1.1" xmlns="http://www.w3.org/2000/svg" xmlns:xlink="http://www.w3.org/1999/xlink">
    <!-- Generator: Sketch 40.1 (33804) - http://www.bohemiancoding.com/sketch -->
    <title>72 - hdpi copy 7</title>
    <desc>Created with Sketch.</desc>
    <defs></defs>
    <g id="Page-1" stroke="none" stroke-width="1" fill="none" fill-rule="evenodd">
        <g id="72---hdpi-copy-7" fill="#9F1B96">
            <g id="icon-coordinador" transform="translate(7.000000, 9.000000)">
                <path d="M3.35,50.625 C3.35,50.625 3.594,48.008 7.092,44.473 C13.697,37.797 22.995,40.708 23.653,33.616 C23.797,32.065 23.335,30.071 23.335,30.071 C21.88,28.504 21.564,25.964 20.991,23.347 C19.146,22.973 18.637,19.613 18.764,17.987 C18.875,16.583 19.606,16.489 19.799,16.489 C19.829,16.489 19.846,16.491 19.846,16.491 C19.846,16.491 18.764,11.63 19.464,8.764 C20.44,4.765 26.327,2.531 30.208,2.531 C34.089,2.531 37.574,4.765 38.55,8.764 C39.25,11.63 38.169,16.491 38.169,16.491 C38.169,16.491 38.185,16.489 38.215,16.489 C38.408,16.489 39.14,16.583 39.25,17.987 C39.378,19.613 38.868,22.973 37.023,23.347 C36.451,25.964 36.57,27.791 34.68,30.071 C34.68,30.071 34.218,32.065 34.362,33.616 C35.016,40.669 44.416,37.912 50.908,44.473 C54.406,48.008 54.65,50.625 54.65,50.625 L3.35,50.625 Z M56.89,50.416 C56.858,50.066 56.457,46.882 52.507,42.891 C49.185,39.533 45.252,38.339 42.091,37.38 C38.11,36.172 36.805,35.597 36.602,33.408 C36.534,32.672 36.666,31.675 36.78,31.041 C38.311,28.997 38.626,27.159 38.931,25.378 C38.959,25.21 38.988,25.04 39.019,24.868 C41.079,23.361 41.663,19.978 41.493,17.811 C41.414,16.8 41.1,16.018 40.654,15.447 C40.953,13.603 41.295,10.518 40.736,8.23 C39.576,3.475 35.345,0.281 30.208,0.281 C25.776,0.281 18.602,2.807 17.278,8.23 C16.72,10.518 17.061,13.603 17.361,15.447 C16.915,16.018 16.6,16.8 16.521,17.811 C16.35,19.985 16.939,23.381 19.014,24.882 C19.021,24.916 19.028,24.95 19.035,24.984 C19.475,27.13 19.928,29.343 21.24,31.071 C21.352,31.705 21.48,32.682 21.412,33.408 C21.209,35.596 19.927,36.159 16.012,37.33 C12.836,38.28 8.884,39.463 5.492,42.89 C1.543,46.882 1.142,50.066 1.11,50.416 L0.88,52.875 L57.12,52.875 L56.89,50.416 Z" id="Fill-2"></path>
            </g>
        </g>
    </g>
</svg>