<?xml version="1.0" encoding="UTF-8" standalone="no"?>
<svg width="72px" height="72px" viewBox="0 0 72 72" version="1.1" xmlns="http://www.w3.org/2000/svg" xmlns:xlink="http://www.w3.org/1999/xlink">
    <!-- Generator: Sketch 40.1 (33804) - http://www.bohemiancoding.com/sketch -->
    <title>72 - hdpi copy 5</title>
    <desc>Created with Sketch.</desc>
    <defs></defs>
    <g id="Page-1" stroke="none" stroke-width="1" fill="none" fill-rule="evenodd">
        <g id="72---hdpi-copy-5" fill="#FFFFFF">
            <g id="icon-traslados" transform="translate(6.000000, 8.000000)">
                <path d="M17.625,13.375 C45.424,13.369 42.203,13.334 43.418,13.44 L34.139,22.719 L35.73,24.31 L47.79,12.25 L35.73,0.19 L34.139,1.781 L43.543,11.184 C43.543,11.184 45.234,11.125 17.625,11.125 C3.773,11.125 -4.218,27.013 4.157,38.125 L7.096,38.125 C-1.814,28.863 4.768,13.375 17.625,13.375" id="Fill-1"></path>
                <path d="M55.8428,17.875 L52.9038,17.875 C61.8138,27.137 55.2318,42.625 42.3748,42.625 C15.1738,42.625 17.7528,42.644 16.8728,42.59 L26.1818,33.281 L24.5918,31.69 L12.5308,43.75 L24.5918,55.81 L26.1818,54.219 L16.8038,44.841 C17.6928,44.894 15.3488,44.875 42.3748,44.875 C56.2268,44.875 64.2178,28.987 55.8428,17.875" id="Fill-3"></path>
            </g>
        </g>
    </g>
</svg>